{
  "prepare_queue": {
    "installed": [],
    "uninstalled": []
  },
  "config_munge": {
    "files": {}
  },
  "installed_plugins": {
    "cordova-plugin-device": {
      "PACKAGE_NAME": "com.artifxl.lemon"
    },
    "cordova-plugin-dialogs": {
      "PACKAGE_NAME": "com.artifxl.lemon"
    },
    "cordova-plugin-geolocation": {
      "PACKAGE_NAME": "com.artifxl.lemon"
    },
    "cordova-plugin-inappbrowser": {
      "PACKAGE_NAME": "com.artifxl.lemon"
    },
    "cordova-plugin-network-information": {
      "PACKAGE_NAME": "com.artifxl.lemon"
    },
    "cordova-plugin-vibration": {
      "PACKAGE_NAME": "com.artifxl.lemon"
    },
    "cordova-plugin-whitelist": {
      "PACKAGE_NAME": "com.artifxl.lemon"
    },
    "phonegap-plugin-barcodescanner": {
      "PACKAGE_NAME": "com.artifxl.lemon"
    }
  },
  "dependent_plugins": {
    "cordova-plugin-compat": {
      "PACKAGE_NAME": "com.artifxl.lemon"
    }
  }
}